<?xml version="1.0" encoding="utf-8"?>
<!-- Generator: Adobe Illustrator 18.0.0, SVG Export Plug-In . SVG Version: 6.00 Build 0)  -->
<!DOCTYPE svg PUBLIC "-//W3C//DTD SVG 1.1//EN" "http://www.w3.org/Graphics/SVG/1.1/DTD/svg11.dtd">
<svg version="1.1" id="Layer_1" xmlns="http://www.w3.org/2000/svg" xmlns:xlink="http://www.w3.org/1999/xlink" x="0px" y="0px"
	 viewBox="0 0 250 295" enable-background="new 0 0 250 295" xml:space="preserve">
<g>
	<path fill="#29ABE2" d="M121.9,45.1C81.4,47,48,78.7,44.2,119.1c-1.9,24.6,6.9,49.3,25.3,66.3c11.4,10.7,17.7,24,17.7,38.6v52.4
		c0,3.8,2.6,6.3,6.3,6.3h25.9v4.4c0,3.8,2.6,6.3,6.3,6.3c3.8,0,6.3-2.5,6.3-6.3v-4.4H158c3.1,0,6.3-2.6,6.3-5.7v-53.1
		c0-14.5,6.3-27.8,17.1-37.9c16.4-15.2,25.9-37.3,25.9-59.4C207.2,80.5,168.6,42.6,121.9,45.1L121.9,45.1z M100.4,232.8h51.2v12
		h-51.2V232.8z M100.4,270.1v-12.6h51.2v12.6H100.4z M172.4,176.5c-12.5,11.9-19.9,27.1-20.8,43.6h-51.4
		c-1.1-16.1-8.6-31.4-21.3-43.6c-15.8-14.5-23.4-34.8-21.5-56.2c3.1-34.1,31-60.7,65.1-62.6c39.2-1.9,72,29.7,72,68.9
		C194.5,145.6,186.3,163.3,172.4,176.5L172.4,176.5z M172.4,176.5"/>
	<path fill="#29ABE2" d="M141.4,110.9l0.7-27.2c0-4.8-6.3-8.6-10.7-4.4l-56.2,56.2c-4.9,4.9-1.7,10.7,4.4,10.7h29.7l-2.6,29.1
		c0,6.5,6.6,8.3,10.7,5l58.8-58.8c3.7-3.1,2.4-10.7-4.4-10.7L141.4,110.9L141.4,110.9z M120.6,159.5l1.9-18.3
		c0.5-3.6-1.2-6.9-6.3-6.9H94.7l34.1-34.1l-0.7,17.7c0,5.2,3.7,6.3,6.3,6.3H156L120.6,159.5z M120.6,159.5"/>
	<rect x="119.3" y="2.8" fill="#29ABE2" width="12.6" height="26.5"/>
	<path fill="#29ABE2" d="M43.1,34.5l18.7,18.7l-8.9,8.9L34.1,43.4L43.1,34.5z M43.1,34.5"/>
	<rect x="2.5" y="119.7" fill="#29ABE2" width="26.5" height="12.6"/>
	<rect x="222.4" y="119.7" fill="#29ABE2" width="26.5" height="12.6"/>
	<path fill="#29ABE2" d="M198.6,62.2l-8.9-8.9l18.8-18.7l8.9,8.9L198.6,62.2z M198.6,62.2"/>
</g>
</svg>
