<?xml version="1.0" encoding="utf-8"?>
<!-- Generator: Adobe Illustrator 18.0.0, SVG Export Plug-In . SVG Version: 6.00 Build 0)  -->
<!DOCTYPE svg PUBLIC "-//W3C//DTD SVG 1.1//EN" "http://www.w3.org/Graphics/SVG/1.1/DTD/svg11.dtd">
<svg version="1.1" id="Layer_1" xmlns="http://www.w3.org/2000/svg" xmlns:xlink="http://www.w3.org/1999/xlink" x="0px" y="0px"
	 viewBox="0 0 215 217" enable-background="new 0 0 215 217" xml:space="preserve">
<path fill="#FFFFFF" d="M62.1,153.4c1.5-4.5,2.9-8.9,4.3-13.2c0.2-0.6,0.5-0.7,1-0.7c0.4,0,0.7,0,1.1,0c27,0,54,0,81,0
	c1.2,0,1.8-0.3,2.2-1.5c3.5-9.9,7-19.8,10.5-29.7c0.6-1.6,0.6-1.6-1.1-1.6c-26.9,0-53.8,0-80.7,0c-2.1,0-2.1,0-1.4-1.9
	c6.7-19.4,13.3-38.9,20-58.3c0.3-1,0.8-1.3,1.8-1.3c33.8,0,67.6,0,101.4,0c1.3,0,1.4,0.3,1,1.4c-1.1,2.7-2.9,4.8-5,6.7
	c-2.6,2.3-5.5,4-8.6,5.5c-0.7,0.3-1.3,0.3-2,0.3c-24.6,0-49.3,0-73.9,0c-1.2,0-1.8,0.4-2.2,1.5c-3.6,10.4-7.3,20.8-11.1,31.1
	c-0.4,1.2-0.2,1.4,1,1.4c27.7,0,55.4,0,83.1,0c1.3,0,1.6,0.1,1.1,1.5c-6.1,16-12.1,32-18.1,48.1c-2.6,6.9-7.9,10.6-15.3,10.6
	c-29.4,0-58.8,0-88.2,0C63.4,153.4,62.9,153.4,62.1,153.4z"/>
<path fill="#FFFFFF" d="M197.9,13.2c-11,0.1-21.8,0.2-32.6,0.4c-8.1,0.1-16.2,0-24.4,0.3c-7,0.3-13.9,0-20.9,0.3
	c-7.6,0.3-15.1,0-22.7,0.3c-5.5,0.2-10.9,0.1-16.4,0.2c-1.1,0-1.5,0.4-1.8,1.3c-3.8,11.3-7.6,22.6-11.5,33.8
	c-7,20.6-14.1,41.2-21.1,61.9c-5.3,15.6-10.7,31.3-16,46.9c-5.5,16.1-11,32.1-16.5,48.2c-1,3-2.1,6.1-3.1,9.1
	c-0.3,1-0.8,1.3-1.8,1.3c-7.6,0.2-9.8-6.4-8.2-11.5c2.2-7.2,4.8-14.3,7.2-21.5c6.1-17.9,12.1-35.8,18.2-53.6c1.7-5,3.4-9.9,5.1-14.9
	c4.6-13.4,9.1-26.8,13.6-40.2c3.9-11.5,7.9-23,11.8-34.6c2-6,4.1-11.9,6.1-17.9c2.4-7,4.8-14,7.1-21c0.5-1.4,1.2-1.9,2.6-1.5
	c1.5,0.4,3-0.1,4.5-0.1c26.8,0,53.6,0.1,80.3-0.1c17.2-0.2,34.5,0,51.7-0.2c2.5,0,4.1,1.2,5.2,3.2c1.6,2.9,1.5,6,1,9.1
	c-0.1,0.8-0.7,0.7-1.2,0.7C208.7,13,203.2,13.3,197.9,13.2z"/>
</svg>
